3E0FDCD2C67232FD1CA05FE81DDD6A55.cache.js
user.agent safari

BD5CCFC35F12413B0536792682F07C46.cache.js
user.agent opera

C0B9589B3049A3CEE6F788E853D729C2.cache.js
user.agent gecko1_8

CADFEAFC73796FB862C8F9E585A3C22E.cache.js
user.agent ie9

E0EEE0EA0D5C991D020D49A67E255A50.cache.js
user.agent ie10

E7F4BCDF4D424911B9CA167E7C33A696.cache.js
user.agent ie8

Devmode:devmode.js